{"results": [{"popularity": 76.96, "vote_count": 94, "poster_path": "/5MSDwUcqnGodFTvtlLiLKK0XKS.jpg", "id": 521034, "adult": false, "backdrop_path": "/8PK4X8U3C79ilzIjNTkTgjmc4js.jpg", "original_language": "en", "original_title": "The Secret Garden", "genre_ids": [18, 14, 10751], "title": "The Secret Garden", "vote_average": 7.3, "overview": "Mary Lennox is born in India to wealthy British parents who never wanted her. When her parents suddenly die, she is sent back to England to live with her uncle. She meets her sickly cousin, and the two children find a wondrous secret garden lost in the grounds of Misselthwaite Manor.", "release_date": "2020-07-08"}, {"popularity": 74.569, "vote_count": 2, "poster_path": "/k68nPLbIST6NP96JmTxmZijEvCA.jpg", "id": 577922, "backdrop_path": "/wzJRB4MKi3yK138bJyuL9nx47y6.jpg", "original_language": "en", "original_title": "Tenet", "genre_ids": [28, 53], "title": "Tenet", "vote_average": 6, "overview": "Armed with only one word - Tenet - and fighting for the survival of the entire world, the Protagonist journeys through a twilight world of international espionage on a mission that will unfold in something beyond real time.", "release_date": "2020-08-26"}, {"popularity": 62.69, "vote_count": 28, "poster_path": "/dKjD3DTZjRI3Ipkf7Oz5zAILnwD.jpg", "id": 659991, "backdrop_path": "/5nRyaVklxyA9OkxqZaPv1KBRqpd.jpg", "original_language": "en", "original_title": "Made in Italy", "genre_ids": [35, 18], "title": "Made in Italy", "vote_average": 6.2, "overview": "A bohemian artist travels from London to Italy with his estranged son to sell the house they inherited from his late wife.", "release_date": "2020-08-06"}, {"popularity": 54.081, "vote_count": 40, "poster_path": "/7I8BmtqjLyyMf3EjrUEIQs0gFYw.jpg", "id": 625568, "backdrop_path": "/e7bpDu3RKsjOYLSt9gHYT2c32Zd.jpg", "original_language": "en", "original_title": "Unhinged", "genre_ids": [28, 53], "title": "Unhinged", "vote_average": 6.5, "overview": "A case of road rage turns into full-blown terror when an unstable driver follows a woman and her son.", "release_date": "2020-07-02"}, {"popularity": 47.758, "vote_count": 116, "poster_path": "/3ynPnBXQVT2Y0s19fDIPlWKUlxH.jpg", "id": 587496, "backdrop_path": "/2gBMBfmQvHeOQQ5PiKiuxVdGs77.jpg", "original_language": "en", "original_title": "The Rental", "genre_ids": [18, 27, 53], "title": "The Rental", "vote_average": 5.6, "overview": "Two couples on an oceanside getaway grow suspicious that the host of their seemingly perfect rental house may be spying on them. Before long, what should have been a celebratory weekend trip turns into something far more sinister.", "release_date": "2020-07-23"}, {"popularity": 41.247, "vote_count": 433, "poster_path": "/yf5IuMW6GHghu39kxA0oFx7Bxmj.jpg", "id": 587792, "backdrop_path": "/d7JUXVvjvVCXWs1mlpyO5ESdWdT.jpg", "original_language": "en", "original_title": "Palm Springs", "genre_ids": [35, 14, 9648, 10749], "title": "Palm Springs", "vote_average": 7.6, "overview": "When carefree Nyles and reluctant maid of honor Sarah have a chance encounter at a Palm Springs wedding, things get complicated when they find themselves unable to escape the venue, themselves, or each other.", "release_date": "2020-07-10"}, {"popularity": 35.296, "vote_count": 0, "poster_path": "/xrI4EnZWftpo1B7tTvlMUXVOikd.jpg", "id": 340102, "backdrop_path": "/lNhKmIG5Kw2qYG3REYuwmNUgl0n.jpg", "original_language": "en", "original_title": "The New Mutants", "genre_ids": [28, 12, 27, 878], "title": "The New Mutants", "vote_average": 0, "overview": "Five young mutants, just discovering their abilities while held in a secret facility against their will, fight to escape their past sins and save themselves.", "release_date": "2020-08-26"}, {"popularity": 33.821, "vote_count": 0, "poster_path": "/aKx1ARwG55zZ0GpRvU2WrGrCG9o.jpg", "id": 337401, "backdrop_path": "/xl5oCFLVMo4d4Pgxvrf8Jmc2IlA.jpg", "original_language": "en", "original_title": "Mulan", "genre_ids": [28, 18, 14, 10752], "title": "Mulan", "vote_average": 0, "overview": "When the Emperor of China issues a decree that one man per family must serve in the Imperial Chinese Army to defend the country from Huns, Hua Mulan, the eldest daughter of an honored warrior, steps in to take the place of her ailing father. She is spirited, determined and quick on her feet. Disguised as a man by the name of Hua Jun, she is tested every step of the way and must harness her innermost strength and embrace her true potential.", "release_date": "2020-09-04"}, {"popularity": 32.076, "vote_count": 1055, "poster_path": "/7W0G3YECgDAfnuiHG91r8WqgIOe.jpg", "id": 446893, "backdrop_path": "/qsxhnirlp7y4Ae9bd11oYJSX59j.jpg", "original_language": "en", "original_title": "Trolls World Tour", "genre_ids": [12, 16, 35, 14, 10402, 10751], "title": "Trolls World Tour", "vote_average": 7.6, "overview": "Queen Poppy and Branch make a surprising discovery \u2014 there are other Troll worlds beyond their own, and their distinct differences create big clashes between these various tribes. When a mysterious threat puts all of the Trolls across the land in danger, Poppy, Branch, and their band of friends must embark on an epic quest to create harmony among the feuding Trolls to unite them against certain doom.", "release_date": "2020-03-12"}, {"popularity": 29.815, "vote_count": 42, "poster_path": "/tPcYPMTOXgIZGUCB5S6nV0yHuD3.jpg", "id": 581392, "backdrop_path": "/aWsVwgG324dFQS5xHEjB7OCOT9w.jpg", "original_language": "ko", "original_title": "\ubc18\ub3c4", "genre_ids": [28, 27, 53], "title": "Peninsula", "vote_average": 5.9, "overview": "A soldier and his team battle hordes of post-apocalyptic zombies in the wastelands of the Korean Peninsula.", "release_date": "2020-07-15"}, {"popularity": 26.865, "vote_count": 327, "poster_path": "/zGVbrulkupqpbwgiNedkJPyQum4.jpg", "id": 592350, "backdrop_path": "/9guoVF7zayiiUq5ulKQpt375VIy.jpg", "original_language": "ja", "original_title": "\u50d5\u306e\u30d2\u30fc\u30ed\u30fc\u30a2\u30ab\u30c7\u30df\u30a2 THE MOVIE \u30d2\u30fc\u30ed\u30fc\u30ba\uff1a\u30e9\u30a4\u30b8\u30f3\u30b0", "genre_ids": [28, 16], "title": "My Hero Academia: Heroes Rising", "vote_average": 8.8, "overview": "Class 1-A visits Nabu Island where they finally get to do some real hero work. The place is so peaceful that it's more like a vacation \u2026 until they're attacked by a villain with an unfathomable Quirk! His power is eerily familiar, and it looks like Shigaraki had a hand in the plan. But with All Might retired and citizens' lives on the line, there's no time for questions. Deku and his friends are the next generation of heroes, and they're the island's only hope.", "release_date": "2019-12-20"}, {"popularity": 26.732, "vote_count": 1, "poster_path": "/iYkrn6iOH6lGYdCcBkyew1UYM5B.jpg", "id": 585013, "backdrop_path": null, "original_language": "en", "original_title": "Shakespeare\u2019s Shitstorm", "genre_ids": [35], "title": "Shakespeare\u2019s Shitstorm", "vote_average": 2, "overview": "Two decades after \"Tromeo and Juliet\", Lloyd Kaufman and The Troma Team go Back to The Bard for a TROMAtic adaptation of Shakespeare's \"The Tempest\".", "release_date": "2020-08-20"}, {"popularity": 25.929, "vote_count": 89, "poster_path": "/kPotrGRJf9Z5qYECXv7BjubyFRp.jpg", "id": 491926, "backdrop_path": "/8Hs8nRToMvHmLBodNSVqKEQAIJN.jpg", "original_language": "en", "original_title": "Resistance", "genre_ids": [18, 36, 10752], "title": "Resistance", "vote_average": 7, "overview": "The story of a group of Jewish Boy Scouts who worked with the French Resistance to save the lives of ten thousand orphans during World War II.", "release_date": "2020-03-27"}, {"popularity": 25.586, "vote_count": 0, "poster_path": "/ijcykNO87JLCgxUltTFqHwlK2yT.jpg", "id": 613504, "backdrop_path": "/dZJJDmiwp0W1NE74SY5WV00v0Ec.jpg", "original_language": "en", "original_title": "After We Collided", "genre_ids": [18, 10749], "title": "After We Collided", "vote_average": 0, "overview": "Tessa finds herself struggling with her complicated relationship with Hardin; she faces a dilemma that could change their lives forever.", "release_date": "2020-09-02"}, {"popularity": 25.473, "vote_count": 17, "poster_path": "/A3z0KMLIEGL22mVrgaV7KDxKRmT.jpg", "id": 539885, "backdrop_path": "/ekkuqt9Q2ad1F7xq2ZONP0oq36P.jpg", "original_language": "en", "original_title": "Ava", "genre_ids": [28, 80, 18, 9648, 53], "title": "Ava", "vote_average": 4.9, "overview": "A black ops assassin is forced to fight for her own survival after a job goes dangerously wrong.", "release_date": "2020-08-06"}, {"popularity": 21.662, "vote_count": 631, "video": false, "poster_path": "/4w1ItwCJCTtSi9nPfJC1vU6NIVg.jpg", "id": 413518, "adult": false, "backdrop_path": "/AdqOBPw4PdtzOcfEuQuZ8MNeTKb.jpg", "original_language": "it", "original_title": "Pinocchio", "genre_ids": [12, 18, 14, 10751], "title": "Pinocchio", "vote_average": 6.8, "overview": "In this live-action adaptation of the beloved fairytale, old woodcarver Geppetto fashions a wooden puppet, Pinocchio, who magically comes to life. Pinocchio longs for adventure and is easily led astray, encountering magical beasts, fantastical spectacles, while making friends and foes along his journey. However, his dream is to become a real boy, which can only come true if he finally changes his ways.", "release_date": "2019-12-19"}, {"popularity": 20.281, "vote_count": 6715, "video": false, "poster_path": "/pCURNjeomWbMSdiP64gj8NVVHTQ.jpg", "id": 264644, "adult": false, "backdrop_path": "/Q42zSrnjqshoC3RLOkvflwL58w.jpg", "original_language": "en", "original_title": "Room", "genre_ids": [18, 53], "title": "Room", "vote_average": 8.1, "overview": "Held captive for 7 years in an enclosed space, a woman and her young son finally gain their freedom, allowing the boy to experience the outside world for the first time.", "release_date": "2015-10-16"}, {"popularity": 19.477, "vote_count": 0, "poster_path": "/74Zw8wcFtmtiVyMXscEJZPZ14eo.jpg", "id": 682402, "backdrop_path": "/elP0nNrhO4rIzvW8hiMM0wqf8Bb.jpg", "original_language": "en", "original_title": "Swimming for Gold", "genre_ids": [10751], "title": "Swimming for Gold", "vote_average": 0, "overview": "Young elite swimmer Claire is sent to Australia to coach a boys swimming team, where she must overcome an old rival and a secret fear to save the swimming camp from closing. Comedy drama starring Peyton List.", "release_date": "2020-09-01"}, {"popularity": 17.222, "vote_count": 2, "poster_path": "/s406yuEfIcmUWUXSwohn8U2b06B.jpg", "id": 566011, "backdrop_path": "/vM5BhMHkt8iaPlnHxK6tAcbjGFs.jpg", "original_language": "en", "original_title": "Curse of the Blind Dead", "genre_ids": [27], "title": "Curse of the Blind Dead", "vote_average": 6, "overview": "In the Thirteenth century, a group of Satan worshipers, the Knights Templar, are captured during a ritual and brutally murdered by the locals. Just before the execution, the Knights swear to return from their graves to haunt the village and the nearby forest. Centuries later, in a post-apocalyptic future, a man and his daughter try to survive against both the undead Knights and a sect commanded by a mad preacher.", "release_date": "2019-10-31"}, {"popularity": 16.571, "vote_count": 549, "poster_path": "/dqA2FCzz4OMmXLitKopzf476RVB.jpg", "id": 585244, "backdrop_path": "/21Q8bzu10YF9i4O5amBkJBombYo.jpg", "original_language": "en", "original_title": "I Still Believe", "genre_ids": [18, 10402], "title": "I Still Believe", "vote_average": 7.8, "overview": "The true-life story of Christian music star Jeremy Camp and his journey of love and loss that looks to prove there is always hope.", "release_date": "2020-03-12"}], "page": 1, "total_results": 218, "dates": {"maximum": "2020-09-15", "minimum": "2020-08-27"}, "total_pages": 11}
